EESchema Schematic File Version 2
LIBS:power
LIBS:device
LIBS:transistors
LIBS:conn
LIBS:linear
LIBS:regul
LIBS:74xx
LIBS:cmos4000
LIBS:adc-dac
LIBS:memory
LIBS:xilinx
LIBS:microcontrollers
LIBS:dsp
LIBS:microchip
LIBS:analog_switches
LIBS:motorola
LIBS:texas
LIBS:intel
LIBS:audio
LIBS:interface
LIBS:digital-audio
LIBS:philips
LIBS:display
LIBS:cypress
LIBS:siliconi
LIBS:opto
LIBS:atmel
LIBS:contrib
LIBS:valves
LIBS:kicad-lib
LIBS:PCI-02-00A-cache
EELAYER 26 0
EELAYER END
$Descr A4 11693 8268
encoding utf-8
Sheet 1 1
Title "MOSFET BOARD MK1"
Date "27-01-2017"
Rev "MK1"
Comp "Tiago Gala"
Comment1 "tiago.gala@gmail.com"
Comment2 ""
Comment3 ""
Comment4 ""
$EndDescr
$Comp
L CONN_01X02 P2
U 1 1 588A6297
P 1900 4250
F 0 "P2" H 1978 4291 50  0000 L CNN
F 1 "CONN_01X02" H 1978 4200 50  0000 L CNN
F 2 "kicad-lib:Terminal_Block_2pos_5.08mm" H 1900 4250 60  0001 C CNN
F 3 "" H 1900 4250 60  0000 C CNN
	1    1900 4250
	-1   0    0    -1  
$EndComp
$Comp
L CONN_01X02 P1
U 1 1 588A633A
P 1900 3350
F 0 "P1" H 1978 3391 50  0000 L CNN
F 1 "CONN_01X02" H 1978 3300 50  0000 L CNN
F 2 "kicad-lib:Terminal_Block_2pos_5.08mm" H 1900 3350 60  0001 C CNN
F 3 "" H 1900 3350 60  0000 C CNN
	1    1900 3350
	-1   0    0    -1  
$EndComp
$Comp
L CONN_01X02 P3
U 1 1 588A6364
P 7450 3250
F 0 "P3" H 7368 2975 50  0000 C CNN
F 1 "CONN_01X02" H 7368 3066 50  0000 C CNN
F 2 "kicad-lib:Terminal_Block_2pos_5.08mm" H 7450 3250 60  0001 C CNN
F 3 "" H 7450 3250 60  0000 C CNN
	1    7450 3250
	1    0    0    1   
$EndComp
Text GLabel 2300 4200 2    40   Input ~ 0
SIG
Wire Wire Line
	2100 4200 2300 4200
$Comp
L GNDA #PWR01
U 1 1 588A6529
P 2200 4400
F 0 "#PWR01" H 2200 4150 50  0001 C CNN
F 1 "GNDA" H 2205 4227 50  0000 C CNN
F 2 "" H 2200 4400 60  0000 C CNN
F 3 "" H 2200 4400 60  0000 C CNN
	1    2200 4400
	1    0    0    -1  
$EndComp
Wire Wire Line
	2200 4400 2200 4300
Wire Wire Line
	2100 4300 2350 4300
$Comp
L GND #PWR02
U 1 1 588A6571
P 2200 3500
F 0 "#PWR02" H 2200 3250 50  0001 C CNN
F 1 "GND" H 2205 3327 50  0000 C CNN
F 2 "" H 2200 3500 60  0000 C CNN
F 3 "" H 2200 3500 60  0000 C CNN
	1    2200 3500
	1    0    0    -1  
$EndComp
Wire Wire Line
	2200 3500 2200 3400
Wire Wire Line
	2100 3400 2350 3400
$Comp
L VPP #PWR03
U 1 1 588A6597
P 2200 3200
F 0 "#PWR03" H 2200 3050 50  0001 C CNN
F 1 "VPP" H 2215 3373 50  0000 C CNN
F 2 "" H 2200 3200 60  0000 C CNN
F 3 "" H 2200 3200 60  0000 C CNN
	1    2200 3200
	1    0    0    -1  
$EndComp
Wire Wire Line
	2200 3200 2200 3300
Wire Wire Line
	2100 3300 2350 3300
$Comp
L R R1
U 1 1 588A7035
P 5200 3200
F 0 "R1" H 5130 3154 50  0000 R CNN
F 1 "750R" H 5130 3245 50  0000 R CNN
F 2 "Resistors_SMD:R_0603_HandSoldering" V 5130 3200 30  0001 C CNN
F 3 "" H 5200 3200 30  0000 C CNN
	1    5200 3200
	-1   0    0    1   
$EndComp
Wire Wire Line
	5200 3350 5200 3450
Wire Wire Line
	5050 3450 5300 3450
$Comp
L GNDA #PWR04
U 1 1 588A714F
P 5200 4550
F 0 "#PWR04" H 5200 4300 50  0001 C CNN
F 1 "GNDA" H 5205 4377 50  0000 C CNN
F 2 "" H 5200 4550 60  0000 C CNN
F 3 "" H 5200 4550 60  0000 C CNN
	1    5200 4550
	1    0    0    -1  
$EndComp
Wire Wire Line
	5200 4550 5200 3650
Wire Wire Line
	5200 3650 5300 3650
Text GLabel 4400 2850 0    40   Input ~ 0
SIG
Wire Wire Line
	5200 2850 5200 3050
$Comp
L VPP #PWR05
U 1 1 588A72D8
P 5950 3050
F 0 "#PWR05" H 5950 2900 50  0001 C CNN
F 1 "VPP" H 5965 3223 50  0000 C CNN
F 2 "" H 5950 3050 60  0000 C CNN
F 3 "" H 5950 3050 60  0000 C CNN
	1    5950 3050
	1    0    0    -1  
$EndComp
Wire Wire Line
	5950 3050 5950 3450
Wire Wire Line
	5950 3450 5850 3450
$Comp
L R R2
U 1 1 588A732D
P 5950 3900
F 0 "R2" H 5880 3854 50  0000 R CNN
F 1 "750R" H 5880 3945 50  0000 R CNN
F 2 "Resistors_SMD:R_0603_HandSoldering" V 5880 3900 30  0001 C CNN
F 3 "" H 5950 3900 30  0000 C CNN
	1    5950 3900
	-1   0    0    1   
$EndComp
Wire Wire Line
	5950 3750 5950 3650
Wire Wire Line
	5850 3650 6050 3650
$Comp
L Led_Small D1
U 1 1 588A7450
P 5950 4250
F 0 "D1" V 5996 4182 50  0000 R CNN
F 1 "Red" V 5905 4182 50  0000 R CNN
F 2 "LEDs:LED-0603" V 5950 4250 60  0001 C CNN
F 3 "" V 5950 4250 60  0000 C CNN
	1    5950 4250
	0    -1   -1   0   
$EndComp
Wire Wire Line
	5950 4050 5950 4150
Wire Wire Line
	5950 4350 5950 4550
$Comp
L R R3
U 1 1 588A777E
P 6200 3650
F 0 "R3" V 6407 3650 50  0000 C CNN
F 1 "100R" V 6316 3650 50  0000 C CNN
F 2 "Resistors_SMD:R_1206_HandSoldering" V 6130 3650 30  0001 C CNN
F 3 "" H 6200 3650 30  0000 C CNN
	1    6200 3650
	0    -1   -1   0   
$EndComp
Connection ~ 5950 3650
$Comp
L R R4
U 1 1 588A783E
P 6450 4100
F 0 "R4" H 6380 4054 50  0000 R CNN
F 1 "10K" H 6380 4145 50  0000 R CNN
F 2 "Resistors_SMD:R_0603_HandSoldering" V 6380 4100 30  0001 C CNN
F 3 "" H 6450 4100 30  0000 C CNN
	1    6450 4100
	-1   0    0    1   
$EndComp
Wire Wire Line
	6450 3950 6450 3650
Wire Wire Line
	6350 3650 6550 3650
Wire Wire Line
	6450 4450 6450 4250
Connection ~ 6450 3650
Wire Wire Line
	6850 4450 6850 3800
Wire Wire Line
	7250 3300 6850 3300
Wire Wire Line
	6850 3300 6850 3400
$Comp
L VPP #PWR06
U 1 1 588A7D0B
P 6850 3050
F 0 "#PWR06" H 6850 2900 50  0001 C CNN
F 1 "VPP" H 6865 3223 50  0000 C CNN
F 2 "" H 6850 3050 60  0000 C CNN
F 3 "" H 6850 3050 60  0000 C CNN
	1    6850 3050
	1    0    0    -1  
$EndComp
Wire Wire Line
	6850 3050 6850 3200
Wire Wire Line
	6850 3200 7250 3200
$Comp
L PWR_FLAG #FLG07
U 1 1 588A8005
P 2350 3250
F 0 "#FLG07" H 2350 3345 50  0001 C CNN
F 1 "PWR_FLAG" H 2350 3474 50  0001 C CNN
F 2 "" H 2350 3250 60  0000 C CNN
F 3 "" H 2350 3250 60  0000 C CNN
	1    2350 3250
	1    0    0    -1  
$EndComp
Wire Wire Line
	2350 3300 2350 3250
Connection ~ 2200 3300
$Comp
L PWR_FLAG #FLG08
U 1 1 588A80F8
P 2350 3450
F 0 "#FLG08" H 2350 3545 50  0001 C CNN
F 1 "PWR_FLAG" H 2350 3674 50  0001 C CNN
F 2 "" H 2350 3450 60  0000 C CNN
F 3 "" H 2350 3450 60  0000 C CNN
	1    2350 3450
	-1   0    0    1   
$EndComp
Wire Wire Line
	2350 3400 2350 3450
Connection ~ 2200 3400
$Comp
L PWR_FLAG #FLG09
U 1 1 588A8189
P 2350 4350
F 0 "#FLG09" H 2350 4445 50  0001 C CNN
F 1 "PWR_FLAG" H 2350 4574 50  0001 C CNN
F 2 "" H 2350 4350 60  0000 C CNN
F 3 "" H 2350 4350 60  0000 C CNN
	1    2350 4350
	-1   0    0    1   
$EndComp
Wire Wire Line
	2350 4300 2350 4350
Connection ~ 2200 4300
Text Notes 4850 3600 0    40   ~ 0
If max = 50mA\nVf typ = 1.25V
Text Notes 5250 3050 0    40   ~ 0
W/ 750 Ohm\n@24V - 30mA\n@12V - 14mA
$Comp
L GND #PWR010
U 1 1 588A73AB
P 5950 4550
F 0 "#PWR010" H 5950 4300 50  0001 C CNN
F 1 "GND" H 5955 4377 50  0000 C CNN
F 2 "" H 5950 4550 60  0000 C CNN
F 3 "" H 5950 4550 60  0000 C CNN
	1    5950 4550
	1    0    0    -1  
$EndComp
Wire Wire Line
	5950 4450 6850 4450
Connection ~ 5950 4450
Connection ~ 6450 4450
$Comp
L TLP293 U1
U 1 1 588A9933
P 5575 3550
F 0 "U1" H 5600 3750 50  0000 C CNN
F 1 "TLP293" H 5600 3350 50  0000 C CNN
F 2 "kicad-lib:SO-4" H 5575 3783 50  0001 C CIN
F 3 "" H 5575 3550 50  0000 L CNN
	1    5575 3550
	1    0    0    -1  
$EndComp
Text Label 7100 3300 2    40   ~ 0
OUT
Text Label 6500 3650 0    40   ~ 0
G
$Comp
L PSMN5R0-30YL Q1
U 1 1 588CF5A3
P 6750 3600
F 0 "Q1" H 6941 3646 50  0000 L CNN
F 1 "PSMN5R0-30YL" H 6941 3555 50  0000 L CNN
F 2 "TO_SOT_Packages_SMD:SOT-669_LFPAK_ThermalVias-1" H 6950 3525 50  0001 L CIN
F 3 "" H 6750 3600 50  0000 L CNN
	1    6750 3600
	1    0    0    -1  
$EndComp
$Comp
L Jumper_NO_Small JP2
U 1 1 588D08CC
P 4700 2950
F 0 "JP2" H 4700 2850 50  0000 C CNN
F 1 "Jumper_NO_Small" H 4710 2890 50  0001 C CNN
F 2 "kicad-lib:SMD_Jumper_2NO" H 4700 2950 60  0001 C CNN
F 3 "" H 4700 2950 60  0000 C CNN
	1    4700 2950
	-1   0    0    -1  
$EndComp
$Comp
L Jumper_NC_Small JP1
U 1 1 588D0A2D
P 4700 2850
F 0 "JP1" H 4700 2971 50  0000 C CNN
F 1 "Jumper_NC_Small" H 4710 2790 50  0001 C CNN
F 2 "kicad-lib:SMD_Jumper_2NC" H 4700 2850 60  0001 C CNN
F 3 "" H 4700 2850 60  0000 C CNN
	1    4700 2850
	1    0    0    -1  
$EndComp
Wire Wire Line
	4800 2850 5200 2850
Wire Wire Line
	4400 2850 4600 2850
Wire Wire Line
	4600 2950 4500 2950
Wire Wire Line
	4500 2950 4500 2850
Connection ~ 4500 2850
$Comp
L R R5
U 1 1 588D0D39
P 5050 3200
F 0 "R5" H 4980 3154 50  0000 R CNN
F 1 "130R" H 4980 3245 50  0000 R CNN
F 2 "Resistors_SMD:R_0603_HandSoldering" V 4980 3200 30  0001 C CNN
F 3 "" H 5050 3200 30  0000 C CNN
	1    5050 3200
	1    0    0    1   
$EndComp
Wire Wire Line
	5050 3350 5050 3450
Connection ~ 5200 3450
Wire Wire Line
	5050 3050 5050 2950
Wire Wire Line
	5050 2950 4800 2950
Text Notes 4300 3300 0    40   ~ 0
W/ 130 Ohm\n@3.3V - 16mA\n@5.0V - 28mA
$EndSCHEMATC
